{
    "tags": {
        "allowUnknownTags": true
    },
    "source": {
        "include": [ "lib/", "./README.md" ],
        "includePattern": "\\.(jsx|js|ts|tsx)$",
        "excludePattern": "(node_modules/|docs)"
    },
    "plugins": [
        "node_modules/better-docs/typescript"
    ],
    "opts": {
        "template": "node_modules/docdash",
        "encoding": "utf8",
        "destination": "public/",
        "recurse": true,
        "verbose": false
    },
    "templates": {
        "cleverLinks": false,
        "monospaceLinks": false,
        "default": {
            "outputSourceFiles": false,
            "includeDate": true,
            "useLongnameInNav": true
        }
    },
    "docdash": {
        "collapse": false,
        "static": true,
        "sort": true,
        "search": false,
        "private": false,
        "typedefs": true,
        "menu": {
            "Examples": {
                "href":"https://gitlab.com/GeneralProtocols/anyhedge/examples",
                "target":"_blank",
                "class":"menu-item",
                "id":"examples"
            },
            "Contracts": {
                "href":"https://gitlab.com/GeneralProtocols/anyhedge/contracts",
                "target":"_blank",
                "class":"menu-item",
                "id":"contracts"
            },
            "Whitepaper": {
                "href":"https://gitlab.com/GeneralProtocols/anyhedge/whitepaper",
                "target":"_blank",
                "class":"menu-item",
                "id":"whitepaper"
            }
        }
    }
}
